[
  {
    "_id": "61aaaa25a87a05991aa782aa",
    "username": "tenchi",
    "password": "fordevonly",
    "permissions": ["play","build","admin"]
  },
  {
    "_id": "61bbbb25b87b05991bb782bb",
    "username": "stonekeep",
    "password": "fordevonly",
    "permissions": ["play","build","admin"]
  }
]